L'algoritmo ha sommato 1000 numeri su una CPU (facendo uso di 0 blocchi e 0 thread per blocco) in 21 us, con un bandwidth effettivo di 0.10 MB/s
L'algoritmo ha sommato 5000 numeri su una CPU (facendo uso di 0 blocchi e 0 thread per blocco) in 103 us, con un bandwidth effettivo di 0.10 MB/s
L'algoritmo ha sommato 10000 numeri su una CPU (facendo uso di 0 blocchi e 0 thread per blocco) in 101 us, con un bandwidth effettivo di 0.20 MB/s
L'algoritmo ha sommato 100000 numeri su una CPU (facendo uso di 0 blocchi e 0 thread per blocco) in 1024 us, con un bandwidth effettivo di 0.20 MB/s
L'algoritmo ha sommato 500000 numeri su una CPU (facendo uso di 0 blocchi e 0 thread per blocco) in 2579 us, con un bandwidth effettivo di 0.39 MB/s
L'algoritmo ha sommato 1000000 numeri su una CPU (facendo uso di 0 blocchi e 0 thread per blocco) in 5214 us, con un bandwidth effettivo di 0.38 MB/s
